{
  "variables": {
    "aws_access_key": "",
    "aws_secret_key": ""
  },
  "builders": [{
    "type": "amazon-ebs",
    "access_key": "{{user `aws_access_key`}}",
    "secret_key": "{{user `aws_secret_key`}}",
    "region": "us-west-1",
    "source_ami_filter": {
      "filters": {
      "virtualization-type": "hvm",
      "name": "*ubuntu-zesty-17.04-amd64-server-*",
      "root-device-type": "ebs"
      },
      "owners": ["099720109477"],
      "most_recent": true
    },
    "instance_type": "t2.medium",
    "ssh_username": "ubuntu",
    "ami_name": "packer-example {{timestamp}}",
    "ami_regions": "us-west-1"
  }],
    "provisioners": [{
    "type": "shell",
    "inline": [
      "sleep 30",
      "sudo apt-get update",
      "sudo apt-get install -y mlocate ansible debconf nmap hsqldb-utils",
      "wget https://www.atlassian.com/software/jira/downloads/binary/atlassian-jira-6.4.14-x64.bin",
      "sudo chmod a+x /home/ubuntu/atlassian-jira-6.4.14-x64.bin",
      "sudo screen -d -m /home/ubuntu/atlassian-jira-6.4.14-x64.bin",
      "echo 'I am teh weenar!'"
    ]
  },
  {
    "type": "ansible-local",
    "playbook_file": "mysql.yaml"
  }
]
}